607Assignment2A Dylan Gold
…
We can use a function from tidyr to complete our data given how our csv does not have a lot of the reviews.

df <- df %>% complete(name, title)
df

# A tibble: 30 × 3
   name  title           review
   <chr> <chr>            <dbl>
 1 Alan  Attack on Titan      4
 2 Alan  Breaking Bad        NA
 3 Alan  Demon Slayer         4
 4 Alan  Dexter              NA
 5 Alan  Dragonball Z         5
 6 Alan  Invincible          NA
 7 Dylan Attack on Titan      5
 8 Dylan Breaking Bad         5
 9 Dylan Demon Slayer         4
10 Dylan Dexter               4
# ℹ 20 more rows

We see our review data is now in R to further explore. Lets start off with grouping the data both by name and by title.

df_group_title <- df %>% group_by(title) 
df_group_name <- df %>% group_by(name)
df_group_title 

# A tibble: 30 × 3
# Groups:   title [6]
   name  title           review
   <chr> <chr>            <dbl>
 1 Alan  Attack on Titan      4
 2 Alan  Breaking Bad        NA
 3 Alan  Demon Slayer         4
 4 Alan  Dexter              NA
 5 Alan  Dragonball Z         5
 6 Alan  Invincible          NA
 7 Dylan Attack on Titan      5
 8 Dylan Breaking Bad         5
 9 Dylan Demon Slayer         4
10 Dylan Dexter               4
# ℹ 20 more rows
…
